…
The following data set is then constructed to answer the research
question:

``` r
df <-superstore_dataset2011_2015 %>%
       group_by(Market,Region,Category,Sub.Category) %>%
       summarise(tot_quantity = sum(Quantity),
                 mean_sales=mean(Sales)) %>%
       arrange(desc(tot_quantity))
print(df)
```

    ## # A tibble: 306 x 6
    ## # Groups:   Market, Region, Category [54]
    ##    Market Region  Category        Sub.Category tot_quantity mean_sales
    ##    <fct>  <fct>   <fct>           <fct>               <int>      <dbl>
    ##  1 EU     Central Office Supplies Art                  3217      114. 
    ##  2 EU     Central Office Supplies Binders              3045       78.9
    ##  3 EU     Central Office Supplies Storage              2741      273. 
    ##  4 US     West    Office Supplies Binders              1868      119. 
    ##  5 US     West    Office Supplies Paper                1702       59.3
    ##  6 US     East    Office Supplies Binders              1652      122. 
    ##  7 EMEA   EMEA    Office Supplies Art                  1590       54.8
    ##  8 EMEA   EMEA    Office Supplies Binders              1570       38.4
    ##  9 Africa Africa  Office Supplies Art                  1497       62.1
    ## 10 US     Central Office Supplies Binders              1473      156. 
    ## # … with 296 more rows
…
